<?xml version="1.0" encoding="UTF-8"?>
<svg width="345px" height="15px" viewBox="0 0 345 15" version="1.1" xmlns="http://www.w3.org/2000/svg">
  <!-- Generator: Sketch 46.1 (44463) - http://www.bohemiancoding.com/sketch -->
  <title>progress</title>
  <desc>Created with Sketch.</desc>
  <defs></defs>
  <g id="Page-1" stroke="none" stroke-width="1" fill="none" fill-rule="evenodd">
    <g id="progress" fill-rule="nonzero">
      <rect id="Rectangle-4" fill="#D8D8D8" x="0" y="0" width="345" height="15"></rect>
      <rect id="Rectangle-4" fill="#E91E63" x="0" y="0" width="259" height="15"></rect>
    </g>
  </g>
</svg>
